{
  "jenkins":
    {
      "url" : "https://codeen.euclid-ec.org/jenkins/",
      "username" : "username",
       "private_token": "token",
       "password" : "",
	   "https" : "proxy:port"
     },
    "gitlab":
    {
	  "url" : "https://gitlab.euclid-sgs.uk/",
      "username" : "username",
       "private_token": "token",
       "password" : "",
	   "https" : "proxy:port"
     },
     "sonar":
    {
	  "url" : "https://codeen-app.euclid-ec.org/sonar/",
      "username" : "username",
       "private_token": "token",
       "password" : "",
	   "https" : "proxy:port"
	   },
	"redmine":
    {
	  "url" : "https://euclid.roe.ac.uk",
      "username" : "username",
       "private_token": "token",
       "password" : "",
	   "https" : "proxy:port"
     }
}